{
    "iisSettings": {
        "windowsAuthentication": false,
        "anonymousAuthentication": true,
        "iisExpress": {
            "applicationUrl": "http://localhost:13568/",
            "sslPort": 44308
        }
    },
    "profiles": {
        "IIS Express": {
            "commandName": "IISExpress",
            "launchBrowser": true,
            "environmentVariables": {
                "ASPNETCORE_ENVIRONMENT": "Development"
            }
        },
        "Server": {
            "commandName": "Project",
            "launchBrowser": true,
            "environmentVariables": {
                "ASPNETCORE_ENVIRONMENT": "Development"
            },
            "applicationUrl": "https://localhost:5001;http://localhost:5000"
        }
    }
}